EESchema Schematic File Version 4
EELAYER 30 0
EELAYER END
$Descr A4 11693 8268
encoding utf-8
Sheet 1 1
Title "Mini DaQ"
Date "2021-06-08"
Rev "1.0"
Comp "USP - FFCLRP - Departamento de Física"
Comment1 "Autor: Carlos Eduardo Gallo Filho (gallocarloseduardo@usp.br)"
Comment2 "Licença: GPLv3 (https://www.gnu.org/licenses/gpl-3.0.en.html)"
Comment3 "Circuito p/ automação da caracterização de transístores de efeito de campo orgânicos"
Comment4 ""
$EndDescr
$Comp
L Transistor_FET:IRF6614 Q1
U 1 1 606233F8
P 5875 3750
F 0 "Q1" H 6079 3796 50  0001 L CNN
F 1 "EGOFET" V 5775 3800 50  0000 L CNN
F 2 "Package_DirectFET:DirectFET_ST" H 5875 3750 50  0001 C CIN
F 3 "https://www.infineon.com/dgdl/irf6614pbf.pdf?fileId=5546d462533600a4015355e8346c1a0f" H 5875 3750 50  0001 L CNN
	1    5875 3750
	0    1    1    0   
$EndComp
Wire Wire Line
	6075 3850 6225 3850
$Comp
L Device:R R1
U 1 1 60682027
P 1325 1575
F 0 "R1" H 1395 1621 50  0000 L CNN
F 1 "1M 1%" H 1395 1530 50  0000 L CNN
F 2 "" V 1255 1575 50  0001 C CNN
F 3 "~" H 1325 1575 50  0001 C CNN
	1    1325 1575
	1    0    0    -1  
$EndComp
$Comp
L Device:R R3
U 1 1 6068E5BD
P 1975 1600
F 0 "R3" H 2045 1646 50  0000 L CNN
F 1 "10 1%" H 2045 1555 50  0000 L CNN
F 2 "" V 1905 1600 50  0001 C CNN
F 3 "~" H 1975 1600 50  0001 C CNN
	1    1975 1600
	1    0    0    -1  
$EndComp
$Comp
L Device:R R5
U 1 1 6068FB81
P 2075 1300
F 0 "R5" H 2145 1346 50  0000 L CNN
F 1 "1k 1%" H 2145 1255 50  0000 L CNN
F 2 "" V 2005 1300 50  0001 C CNN
F 3 "~" H 2075 1300 50  0001 C CNN
	1    2075 1300
	1    0    0    -1  
$EndComp
Wire Wire Line
	1975 1450 2075 1450
Connection ~ 2075 1450
$Comp
L Switch:SW_DP3T SW2
U 1 1 606CA6AA
P 3075 1350
F 0 "SW2" H 3075 1025 50  0000 C CNN
F 1 "SW_DP3T" H 3075 1116 50  0000 C CNN
F 2 "" H 2450 1525 50  0001 C CNN
F 3 "~" H 2450 1525 50  0001 C CNN
	1    3075 1350
	-1   0    0    1   
$EndComp
$Comp
L Switch:SW_DP3T SW1
U 1 1 606CADF2
P 1525 1350
F 0 "SW1" H 1525 1025 50  0000 C CNN
F 1 "SW_DP3T" H 1525 1116 50  0000 C CNN
F 2 "" H 900 1525 50  0001 C CNN
F 3 "~" H 900 1525 50  0001 C CNN
	1    1525 1350
	1    0    0    1   
$EndComp
Wire Wire Line
	2075 1450 2875 1450
Wire Wire Line
	2875 1350 2600 1350
Wire Wire Line
	2600 1350 2600 1150
Wire Wire Line
	2600 1150 2075 1150
Connection ~ 1975 1450
Wire Wire Line
	1975 1450 1725 1450
Wire Wire Line
	1875 1150 1875 1350
Wire Wire Line
	1875 1350 1725 1350
Wire Wire Line
	1875 1150 2075 1150
Connection ~ 2075 1150
Wire Wire Line
	2875 1250 2675 1250
Wire Wire Line
	2675 1250 2675 1100
Wire Wire Line
	2675 1100 1725 1100
Wire Wire Line
	1725 1100 1725 1250
Text Notes 1600 2125 0    129  ~ 0
Amperímetro - GS
Wire Wire Line
	1325 1750 1325 1725
Wire Wire Line
	1325 1350 1325 1425
Wire Wire Line
	1325 1350 1150 1350
Connection ~ 1325 1350
Wire Wire Line
	1325 1750 1150 1750
Connection ~ 1325 1750
Text Label 4325 1550 0    50   ~ 0
Out_Current_GS
Text Label 1150 1350 2    50   ~ 0
+GS_Current
Text Label 1150 1750 2    50   ~ 0
-GS_Current
Text Label 5875 3425 0    50   ~ 0
-GS_Current
Text Label 5875 3275 0    50   ~ 0
+GS_Current
Wire Wire Line
	5875 3125 5875 3275
Text Label 6400 3850 3    50   ~ 0
+DS_Current
Text Label 6225 3850 3    50   ~ 0
-DS_Current
Wire Wire Line
	5675 3850 5675 3925
Wire Wire Line
	1325 1750 1975 1750
Wire Wire Line
	1975 1750 3450 1750
Connection ~ 1975 1750
Wire Wire Line
	3275 1350 3450 1350
$Comp
L Amplifier_Instrumentation:INA128 U4
U 1 1 60987FC0
P 3750 1550
F 0 "U4" H 3900 1675 50  0000 L CNN
F 1 "INA333" H 3900 1450 50  0000 L CNN
F 2 "" H 3850 1550 50  0001 C CNN
F 3 "http://www.ti.com/lit/ds/symlink/ina128.pdf" H 3850 1550 50  0001 C CNN
	1    3750 1550
	1    0    0    -1  
$EndComp
$Comp
L power:Earth #PWR0101
U 1 1 609941E0
P 3750 1850
F 0 "#PWR0101" H 3750 1600 50  0001 C CNN
F 1 "Earth" H 3750 1700 50  0001 C CNN
F 2 "" H 3750 1850 50  0001 C CNN
F 3 "~" H 3750 1850 50  0001 C CNN
	1    3750 1850
	1    0    0    -1  
$EndComp
$Comp
L power:VCC #PWR0102
U 1 1 609A5E9E
P 3750 1000
F 0 "#PWR0102" H 3750 850 50  0001 C CNN
F 1 "VCC" H 3765 1173 50  0000 C CNN
F 2 "" H 3750 1000 50  0001 C CNN
F 3 "" H 3750 1000 50  0001 C CNN
	1    3750 1000
	1    0    0    -1  
$EndComp
$Comp
L Device:C_Small C2
U 1 1 609A5EA4
P 3600 1000
F 0 "C2" V 3371 1000 50  0000 C CNN
F 1 "0u1" V 3462 1000 50  0000 C CNN
F 2 "" H 3600 1000 50  0001 C CNN
F 3 "~" H 3600 1000 50  0001 C CNN
	1    3600 1000
	0    1    1    0   
$EndComp
Wire Wire Line
	3500 1000 3500 1050
Wire Wire Line
	3700 1000 3750 1000
Connection ~ 3750 1000
$Comp
L power:Earth #PWR0103
U 1 1 609A5EAE
P 3500 1050
F 0 "#PWR0103" H 3500 800 50  0001 C CNN
F 1 "Earth" H 3500 900 50  0001 C CNN
F 2 "" H 3500 1050 50  0001 C CNN
F 3 "~" H 3500 1050 50  0001 C CNN
	1    3500 1050
	1    0    0    -1  
$EndComp
Wire Wire Line
	3750 1000 3750 1250
$Comp
L power:GND2 #PWR0104
U 1 1 6098D9B4
P 3850 1850
F 0 "#PWR0104" H 3850 1600 50  0001 C CNN
F 1 "GND2" H 3855 1677 50  0000 C CNN
F 2 "" H 3850 1850 50  0001 C CNN
F 3 "" H 3850 1850 50  0001 C CNN
	1    3850 1850
	1    0    0    -1  
$EndComp
Wire Notes Line
	1200 2150 4275 2150
Wire Notes Line
	4275 2150 4275 700 
Wire Notes Line
	4275 700  1200 700 
Wire Notes Line
	1200 700  1200 2150
$Comp
L Device:R R2
U 1 1 60A4CB81
P 1325 3200
F 0 "R2" H 1395 3246 50  0000 L CNN
F 1 "1M 1%" H 1395 3155 50  0000 L CNN
F 2 "" V 1255 3200 50  0001 C CNN
F 3 "~" H 1325 3200 50  0001 C CNN
	1    1325 3200
	1    0    0    -1  
$EndComp
$Comp
L Device:R R4
U 1 1 60A4CB87
P 1975 3225
F 0 "R4" H 2045 3271 50  0000 L CNN
F 1 "10 1%" H 2045 3180 50  0000 L CNN
F 2 "" V 1905 3225 50  0001 C CNN
F 3 "~" H 1975 3225 50  0001 C CNN
	1    1975 3225
	1    0    0    -1  
$EndComp
$Comp
L Device:R R6
U 1 1 60A4CB8D
P 2075 2925
F 0 "R6" H 2145 2971 50  0000 L CNN
F 1 "1k 1%" H 2145 2880 50  0000 L CNN
F 2 "" V 2005 2925 50  0001 C CNN
F 3 "~" H 2075 2925 50  0001 C CNN
	1    2075 2925
	1    0    0    -1  
$EndComp
Wire Wire Line
	1975 3075 2075 3075
Connection ~ 2075 3075
$Comp
L Switch:SW_DP3T SW2
U 2 1 60A4CB95
P 3075 2975
F 0 "SW2" H 3075 2650 50  0000 C CNN
F 1 "SW_DP3T" H 3075 2741 50  0000 C CNN
F 2 "" H 2450 3150 50  0001 C CNN
F 3 "~" H 2450 3150 50  0001 C CNN
	2    3075 2975
	-1   0    0    1   
$EndComp
$Comp
L Switch:SW_DP3T SW1
U 2 1 60A4CB9B
P 1525 2975
F 0 "SW1" H 1525 2650 50  0000 C CNN
F 1 "SW_DP3T" H 1525 2741 50  0000 C CNN
F 2 "" H 900 3150 50  0001 C CNN
F 3 "~" H 900 3150 50  0001 C CNN
	2    1525 2975
	1    0    0    1   
$EndComp
Wire Wire Line
	2075 3075 2875 3075
Wire Wire Line
	2875 2975 2600 2975
Wire Wire Line
	2600 2975 2600 2775
Wire Wire Line
	2600 2775 2075 2775
Connection ~ 1975 3075
Wire Wire Line
	1975 3075 1725 3075
Wire Wire Line
	1875 2775 1875 2975
Wire Wire Line
	1875 2975 1725 2975
Wire Wire Line
	1875 2775 2075 2775
Connection ~ 2075 2775
Wire Wire Line
	2875 2875 2675 2875
Wire Wire Line
	2675 2875 2675 2725
Wire Wire Line
	2675 2725 1725 2725
Wire Wire Line
	1725 2725 1725 2875
Text Notes 1600 3750 0    129  ~ 0
Amperímetro - DS
Wire Wire Line
	1325 3375 1325 3350
Wire Wire Line
	1325 2975 1325 3050
Wire Wire Line
	1325 2975 1150 2975
Connection ~ 1325 2975
Wire Wire Line
	1325 3375 1150 3375
Connection ~ 1325 3375
Text Label 4325 3175 0    50   ~ 0
Out_Current_DS
Text Label 1150 2975 2    50   ~ 0
+DS_Current
Text Label 1150 3375 2    50   ~ 0
-DS_Current
Wire Wire Line
	1325 3375 1975 3375
Wire Wire Line
	1975 3375 3450 3375
Connection ~ 1975 3375
Wire Wire Line
	3275 2975 3450 2975
$Comp
L Amplifier_Instrumentation:INA128 U5
U 1 1 60A4CBBE
P 3750 3175
F 0 "U5" H 3900 3300 50  0000 L CNN
F 1 "INA333" H 3900 3075 50  0000 L CNN
F 2 "" H 3850 3175 50  0001 C CNN
F 3 "http://www.ti.com/lit/ds/symlink/ina128.pdf" H 3850 3175 50  0001 C CNN
	1    3750 3175
	1    0    0    -1  
$EndComp
$Comp
L power:Earth #PWR0105
U 1 1 60A4CBC4
P 3750 3475
F 0 "#PWR0105" H 3750 3225 50  0001 C CNN
F 1 "Earth" H 3750 3325 50  0001 C CNN
F 2 "" H 3750 3475 50  0001 C CNN
F 3 "~" H 3750 3475 50  0001 C CNN
	1    3750 3475
	1    0    0    -1  
$EndComp
$Comp
L power:VCC #PWR0106
U 1 1 60A4CBCA
P 3750 2625
F 0 "#PWR0106" H 3750 2475 50  0001 C CNN
F 1 "VCC" H 3765 2798 50  0000 C CNN
F 2 "" H 3750 2625 50  0001 C CNN
F 3 "" H 3750 2625 50  0001 C CNN
	1    3750 2625
	1    0    0    -1  
$EndComp
$Comp
L Device:C_Small C3
U 1 1 60A4CBD0
P 3600 2625
F 0 "C3" V 3371 2625 50  0000 C CNN
F 1 "0u1" V 3462 2625 50  0000 C CNN
F 2 "" H 3600 2625 50  0001 C CNN
F 3 "~" H 3600 2625 50  0001 C CNN
	1    3600 2625
	0    1    1    0   
$EndComp
Wire Wire Line
	3500 2625 3500 2675
Wire Wire Line
	3700 2625 3750 2625
Connection ~ 3750 2625
$Comp
L power:Earth #PWR0107
U 1 1 60A4CBD9
P 3500 2675
F 0 "#PWR0107" H 3500 2425 50  0001 C CNN
F 1 "Earth" H 3500 2525 50  0001 C CNN
F 2 "" H 3500 2675 50  0001 C CNN
F 3 "~" H 3500 2675 50  0001 C CNN
	1    3500 2675
	1    0    0    -1  
$EndComp
Wire Wire Line
	3750 2625 3750 2875
$Comp
L power:GND2 #PWR0108
U 1 1 60A4CBE0
P 3850 3475
F 0 "#PWR0108" H 3850 3225 50  0001 C CNN
F 1 "GND2" H 3855 3302 50  0000 C CNN
F 2 "" H 3850 3475 50  0001 C CNN
F 3 "" H 3850 3475 50  0001 C CNN
	1    3850 3475
	1    0    0    -1  
$EndComp
Wire Notes Line
	1200 3775 4275 3775
Wire Notes Line
	4275 3775 4275 2325
Wire Notes Line
	4275 2325 1200 2325
Wire Notes Line
	1200 2325 1200 3775
Wire Wire Line
	6575 3850 6400 3850
$Comp
L Analog_ADC:ADS1115IDGS U8
U 1 1 6092A935
P 7825 1450
F 0 "U8" H 7450 1775 50  0000 C CNN
F 1 "ADS1115IDGS" H 7475 1900 50  0000 C CNN
F 2 "Package_SO:TSSOP-10_3x3mm_P0.5mm" H 7825 950 50  0001 C CNN
F 3 "http://www.ti.com/lit/ds/symlink/ads1113.pdf" H 7775 550 50  0001 C CNN
	1    7825 1450
	1    0    0    -1  
$EndComp
Text Label 8225 1550 0    50   ~ 0
SDA
Text Label 8225 1450 0    50   ~ 0
SCL
$Comp
L power:Earth #PWR0109
U 1 1 60957E6F
P 8225 1650
F 0 "#PWR0109" H 8225 1400 50  0001 C CNN
F 1 "Earth" H 8225 1500 50  0001 C CNN
F 2 "" H 8225 1650 50  0001 C CNN
F 3 "~" H 8225 1650 50  0001 C CNN
	1    8225 1650
	1    0    0    -1  
$EndComp
$Comp
L power:Earth #PWR0110
U 1 1 60958490
P 7825 1850
F 0 "#PWR0110" H 7825 1600 50  0001 C CNN
F 1 "Earth" H 7825 1700 50  0001 C CNN
F 2 "" H 7825 1850 50  0001 C CNN
F 3 "~" H 7825 1850 50  0001 C CNN
	1    7825 1850
	1    0    0    -1  
$EndComp
$Comp
L power:VCC #PWR0111
U 1 1 60959C6F
P 7825 950
F 0 "#PWR0111" H 7825 800 50  0001 C CNN
F 1 "VCC" H 7840 1123 50  0000 C CNN
F 2 "" H 7825 950 50  0001 C CNN
F 3 "" H 7825 950 50  0001 C CNN
	1    7825 950 
	-1   0    0    -1  
$EndComp
$Comp
L Device:R_Small R15
U 1 1 6095AC5A
P 10100 3700
F 0 "R15" H 10150 3700 50  0000 L CNN
F 1 "10k" H 10150 3775 50  0000 L CNN
F 2 "" H 10100 3700 50  0001 C CNN
F 3 "~" H 10100 3700 50  0001 C CNN
	1    10100 3700
	1    0    0    -1  
$EndComp
$Comp
L Device:R_Small R16
U 1 1 6096D83E
P 10375 3800
F 0 "R16" H 10425 3800 50  0000 L CNN
F 1 "10k" H 10425 3875 50  0000 L CNN
F 2 "" H 10375 3800 50  0001 C CNN
F 3 "~" H 10375 3800 50  0001 C CNN
	1    10375 3800
	1    0    0    -1  
$EndComp
Wire Wire Line
	10375 3700 10375 3500
Wire Wire Line
	10375 3500 10225 3500
Wire Wire Line
	10100 3500 10100 3600
$Comp
L power:VCC #PWR0112
U 1 1 60979674
P 10225 3500
F 0 "#PWR0112" H 10225 3350 50  0001 C CNN
F 1 "VCC" H 10240 3673 50  0000 C CNN
F 2 "" H 10225 3500 50  0001 C CNN
F 3 "" H 10225 3500 50  0001 C CNN
	1    10225 3500
	-1   0    0    -1  
$EndComp
Connection ~ 10225 3500
Wire Wire Line
	10225 3500 10100 3500
NoConn ~ 8225 1250
Text Label 10375 3975 0    50   ~ 0
SCL
Text Label 5875 3125 2    50   ~ 0
Vgs
Wire Wire Line
	5875 3425 5875 3550
Text Label 6575 3850 0    50   ~ 0
Vds
$Comp
L power:Earth #PWR0113
U 1 1 6094B185
P 2250 5775
F 0 "#PWR0113" H 2250 5525 50  0001 C CNN
F 1 "Earth" H 2250 5625 50  0001 C CNN
F 2 "" H 2250 5775 50  0001 C CNN
F 3 "~" H 2250 5775 50  0001 C CNN
	1    2250 5775
	1    0    0    -1  
$EndComp
$Comp
L power:VCC #PWR0114
U 1 1 6094BD68
P 2250 4925
F 0 "#PWR0114" H 2250 4775 50  0001 C CNN
F 1 "VCC" H 2265 5098 50  0000 C CNN
F 2 "" H 2250 4925 50  0001 C CNN
F 3 "" H 2250 4925 50  0001 C CNN
	1    2250 4925
	1    0    0    -1  
$EndComp
Text Label 4625 6100 0    50   ~ 0
Vds
Text Label 4600 4725 0    50   ~ 0
Vgs
$Comp
L Analog_DAC:MCP4728 U1
U 1 1 6099CE9C
P 2250 5375
F 0 "U1" H 1950 5725 50  0000 C CNN
F 1 "MCP4728" H 1950 5625 50  0000 C CNN
F 2 "Package_SO:MSOP-10_3x3mm_P0.5mm" H 2250 4775 50  0001 C CNN
F 3 "http://ww1.microchip.com/downloads/en/DeviceDoc/22187E.pdf" H 2250 5625 50  0001 C CNN
	1    2250 5375
	1    0    0    -1  
$EndComp
$Comp
L Amplifier_Instrumentation:INA326 U2
U 1 1 6099D7C2
P 3600 4725
F 0 "U2" H 3925 4525 50  0000 L CNN
F 1 "INA326" H 3825 4625 50  0000 L CNN
F 2 "Package_SO:MSOP-8_3x3mm_P0.65mm" H 3600 4725 50  0001 L CNN
F 3 "http://www.ti.com/lit/ds/symlink/ina326.pdf" H 3700 4725 50  0001 C CNN
	1    3600 4725
	1    0    0    -1  
$EndComp
Wire Wire Line
	2850 4525 3300 4525
Wire Wire Line
	2850 5375 2900 5375
Wire Wire Line
	2900 4925 3300 4925
$Comp
L power:Earth #PWR0115
U 1 1 609BBC55
P 3600 5025
F 0 "#PWR0115" H 3600 4775 50  0001 C CNN
F 1 "Earth" H 3600 4875 50  0001 C CNN
F 2 "" H 3600 5025 50  0001 C CNN
F 3 "~" H 3600 5025 50  0001 C CNN
	1    3600 5025
	1    0    0    -1  
$EndComp
$Comp
L power:VCC #PWR0116
U 1 1 609BC0C3
P 3600 4300
F 0 "#PWR0116" H 3600 4150 50  0001 C CNN
F 1 "VCC" H 3615 4473 50  0000 C CNN
F 2 "" H 3600 4300 50  0001 C CNN
F 3 "" H 3600 4300 50  0001 C CNN
	1    3600 4300
	1    0    0    -1  
$EndComp
$Comp
L power:VCC #PWR0118
U 1 1 609BC9AB
P 3625 5650
F 0 "#PWR0118" H 3625 5500 50  0001 C CNN
F 1 "VCC" H 3525 5700 50  0000 C CNN
F 2 "" H 3625 5650 50  0001 C CNN
F 3 "" H 3625 5650 50  0001 C CNN
	1    3625 5650
	1    0    0    -1  
$EndComp
$Comp
L Device:R_Small R8
U 1 1 609D136A
P 3325 6100
F 0 "R8" H 3475 6050 50  0000 R CNN
F 1 "200k 1%" H 3700 6125 50  0000 R CNN
F 2 "" H 3325 6100 50  0001 C CNN
F 3 "~" H 3325 6100 50  0001 C CNN
	1    3325 6100
	-1   0    0    1   
$EndComp
$Comp
L Device:R_Small R12
U 1 1 609D2241
P 3725 6600
F 0 "R12" H 3875 6600 50  0000 R CNN
F 1 "100k 1%" H 3675 6600 50  0000 R CNN
F 2 "" H 3725 6600 50  0001 C CNN
F 3 "~" H 3725 6600 50  0001 C CNN
	1    3725 6600
	1    0    0    -1  
$EndComp
Wire Wire Line
	3725 6500 3875 6500
$Comp
L Device:C_Small C7
U 1 1 609D9126
P 4025 6600
F 0 "C7" H 4117 6646 50  0000 L CNN
F 1 "0.1n" H 4117 6555 50  0000 L CNN
F 2 "" H 4025 6600 50  0001 C CNN
F 3 "~" H 4025 6600 50  0001 C CNN
	1    4025 6600
	1    0    0    -1  
$EndComp
Wire Wire Line
	3725 6700 3875 6700
$Comp
L power:GND2 #PWR0119
U 1 1 609DC5FE
P 3875 6700
F 0 "#PWR0119" H 3875 6450 50  0001 C CNN
F 1 "GND2" H 3975 6575 50  0000 C CNN
F 2 "" H 3875 6700 50  0001 C CNN
F 3 "" H 3875 6700 50  0001 C CNN
	1    3875 6700
	1    0    0    -1  
$EndComp
Connection ~ 3875 6700
Wire Wire Line
	3875 6700 4025 6700
Wire Wire Line
	3725 6400 3875 6400
Wire Wire Line
	3875 6400 3875 6500
Connection ~ 3875 6500
Wire Wire Line
	3875 6500 4025 6500
$Comp
L Device:R_Small R7
U 1 1 609EC7E3
P 3300 4725
F 0 "R7" H 3450 4675 50  0000 R CNN
F 1 "200k 1%" H 3675 4750 50  0000 R CNN
F 2 "" H 3300 4725 50  0001 C CNN
F 3 "~" H 3300 4725 50  0001 C CNN
	1    3300 4725
	-1   0    0    1   
$EndComp
$Comp
L Device:C_Small C4
U 1 1 609EDB67
P 3825 4300
F 0 "C4" V 3596 4300 50  0000 C CNN
F 1 "0u1" V 3687 4300 50  0000 C CNN
F 2 "" H 3825 4300 50  0001 C CNN
F 3 "~" H 3825 4300 50  0001 C CNN
	1    3825 4300
	0    -1   1    0   
$EndComp
Wire Wire Line
	3600 4425 3600 4300
$Comp
L power:Earth #PWR0121
U 1 1 60A05B5B
P 3925 4400
F 0 "#PWR0121" H 3925 4150 50  0001 C CNN
F 1 "Earth" H 3925 4250 50  0001 C CNN
F 2 "" H 3925 4400 50  0001 C CNN
F 3 "~" H 3925 4400 50  0001 C CNN
	1    3925 4400
	1    0    0    -1  
$EndComp
Wire Wire Line
	3600 4300 3725 4300
Connection ~ 3600 4300
Wire Wire Line
	3925 4300 3925 4400
Wire Wire Line
	2900 4925 2900 5375
Wire Wire Line
	2850 4525 2850 5275
$Comp
L Amplifier_Instrumentation:INA326 U3
U 1 1 6099DBCD
P 3625 6100
F 0 "U3" H 3925 5875 50  0000 L CNN
F 1 "INA326" H 3850 5975 50  0000 L CNN
F 2 "Package_SO:MSOP-8_3x3mm_P0.65mm" H 3625 6100 50  0001 L CNN
F 3 "http://www.ti.com/lit/ds/symlink/ina326.pdf" H 3725 6100 50  0001 C CNN
	1    3625 6100
	1    0    0    -1  
$EndComp
Wire Wire Line
	2850 5475 3325 5475
Wire Wire Line
	3325 5475 3325 5900
Wire Wire Line
	3625 5800 3625 5650
Connection ~ 3625 5650
$Comp
L Device:C_Small C5
U 1 1 60AAE437
P 3825 5650
F 0 "C5" V 3700 5675 50  0000 C CNN
F 1 "0u1" V 3925 5700 50  0000 C CNN
F 2 "" H 3825 5650 50  0001 C CNN
F 3 "~" H 3825 5650 50  0001 C CNN
	1    3825 5650
	0    -1   1    0   
$EndComp
$Comp
L power:Earth #PWR0122
U 1 1 60AAE43D
P 3925 5750
F 0 "#PWR0122" H 3925 5500 50  0001 C CNN
F 1 "Earth" H 3925 5600 50  0001 C CNN
F 2 "" H 3925 5750 50  0001 C CNN
F 3 "~" H 3925 5750 50  0001 C CNN
	1    3925 5750
	1    0    0    -1  
$EndComp
Wire Wire Line
	3925 5650 3925 5750
Wire Wire Line
	3625 5650 3725 5650
Wire Wire Line
	10100 3800 10100 3875
Wire Wire Line
	10100 3875 9850 3875
Wire Wire Line
	9850 3975 10375 3975
Wire Wire Line
	10375 3975 10375 3900
Text Label 10100 3875 0    50   ~ 0
SCL
Text Label 1650 5375 2    50   ~ 0
SDA
Text Label 1650 5275 2    50   ~ 0
SCL
$Comp
L Device:C_Small C1
U 1 1 60B39330
P 2450 4925
F 0 "C1" V 2221 4925 50  0000 C CNN
F 1 "0u1" V 2312 4925 50  0000 C CNN
F 2 "" H 2450 4925 50  0001 C CNN
F 3 "~" H 2450 4925 50  0001 C CNN
	1    2450 4925
	0    -1   1    0   
$EndComp
$Comp
L power:Earth #PWR0123
U 1 1 60B3B9F1
P 2550 5025
F 0 "#PWR0123" H 2550 4775 50  0001 C CNN
F 1 "Earth" H 2550 4875 50  0001 C CNN
F 2 "" H 2550 5025 50  0001 C CNN
F 3 "~" H 2550 5025 50  0001 C CNN
	1    2550 5025
	1    0    0    -1  
$EndComp
Wire Wire Line
	2250 4925 2350 4925
Wire Wire Line
	2550 4925 2550 5025
Wire Wire Line
	2250 5075 2250 4925
Connection ~ 2250 4925
Wire Wire Line
	2900 5375 2900 6300
Wire Wire Line
	2900 6300 3325 6300
Connection ~ 2900 5375
NoConn ~ 1650 5575
NoConn ~ 2850 5575
Wire Notes Line
	1425 3975 1425 6950
Text Notes 1550 6900 0    129  ~ 0
Fonte de tensão
$Comp
L power:GND2 #PWR0124
U 1 1 60BC952D
P 5675 3925
F 0 "#PWR0124" H 5675 3675 50  0001 C CNN
F 1 "GND2" H 5680 3752 50  0000 C CNN
F 2 "" H 5675 3925 50  0001 C CNN
F 3 "" H 5675 3925 50  0001 C CNN
	1    5675 3925
	1    0    0    -1  
$EndComp
$Comp
L Analog_Switch:CD4052B U7
U 1 1 60BD1A11
P 6500 1575
F 0 "U7" H 6350 2325 50  0000 C CNN
F 1 "CD4052B" H 6325 2225 50  0000 C CNN
F 2 "" H 6650 825 50  0001 L CNN
F 3 "http://www.ti.com/lit/ds/symlink/cd4052b.pdf" H 6480 1775 50  0001 C CNN
	1    6500 1575
	-1   0    0    1   
$EndComp
Text Label 6000 1875 2    50   ~ 0
Out_Current_GS
Text Label 6000 1375 2    50   ~ 0
Out_Current_DS
Text Label 6000 1775 2    50   ~ 0
Vgs
Text Label 6000 1275 2    50   ~ 0
Vds
$Comp
L power:GND2 #PWR0125
U 1 1 60C3BCAD
P 7400 1850
F 0 "#PWR0125" H 7400 1600 50  0001 C CNN
F 1 "GND2" H 7405 1677 50  0000 C CNN
F 2 "" H 7400 1850 50  0001 C CNN
F 3 "" H 7400 1850 50  0001 C CNN
	1    7400 1850
	1    0    0    -1  
$EndComp
Text Label 7000 1175 0    50   ~ 0
INH
Text Label 7000 1975 0    50   ~ 0
B
Text Label 7000 2075 0    50   ~ 0
A
NoConn ~ 6000 1675
NoConn ~ 6000 1575
NoConn ~ 6000 1175
NoConn ~ 6000 1075
$Comp
L power:VCC #PWR0126
U 1 1 60C71CED
P 6400 2275
F 0 "#PWR0126" H 6400 2125 50  0001 C CNN
F 1 "VCC" H 6415 2448 50  0000 C CNN
F 2 "" H 6400 2275 50  0001 C CNN
F 3 "" H 6400 2275 50  0001 C CNN
	1    6400 2275
	1    0    0    1   
$EndComp
$Comp
L power:Earth #PWR0127
U 1 1 60C72605
P 6750 825
F 0 "#PWR0127" H 6750 575 50  0001 C CNN
F 1 "Earth" H 6750 675 50  0001 C CNN
F 2 "" H 6750 825 50  0001 C CNN
F 3 "~" H 6750 825 50  0001 C CNN
	1    6750 825 
	1    0    0    -1  
$EndComp
Wire Wire Line
	6500 875  6500 775 
Wire Wire Line
	6500 775  6350 775 
Wire Wire Line
	6350 775  6350 800 
$Comp
L power:GND2 #PWR0128
U 1 1 60C772DD
P 6350 800
F 0 "#PWR0128" H 6350 550 50  0001 C CNN
F 1 "GND2" H 6200 700 50  0000 C CNN
F 2 "" H 6350 800 50  0001 C CNN
F 3 "" H 6350 800 50  0001 C CNN
	1    6350 800 
	1    0    0    -1  
$EndComp
Wire Wire Line
	6600 875  6600 775 
Wire Wire Line
	6600 775  6750 775 
Wire Wire Line
	6750 775  6750 825 
Wire Wire Line
	7000 1275 7300 1275
Wire Wire Line
	7000 1775 7300 1775
Wire Notes Line
	5400 675  5400 2650
Text Notes 5425 2625 0    129  ~ 0
Conversor A/D + Multiplexador
Wire Notes Line
	5400 4475 6875 4475
Wire Notes Line
	6875 4475 6875 2975
Wire Notes Line
	6875 2975 5400 2975
Wire Notes Line
	5400 2975 5400 4475
$Comp
L power:Earth #PWR0129
U 1 1 60D5D966
P 9000 5850
F 0 "#PWR0129" H 9000 5600 50  0001 C CNN
F 1 "Earth" H 9000 5700 50  0001 C CNN
F 2 "" H 9000 5850 50  0001 C CNN
F 3 "~" H 9000 5850 50  0001 C CNN
	1    9000 5850
	1    0    0    -1  
$EndComp
Wire Wire Line
	9000 5850 9000 5775
Connection ~ 9000 5775
$Comp
L power:VCC #PWR0130
U 1 1 60D82FA0
P 9200 3100
F 0 "#PWR0130" H 9200 2950 50  0001 C CNN
F 1 "VCC" H 9215 3273 50  0000 C CNN
F 2 "" H 9200 3100 50  0001 C CNN
F 3 "" H 9200 3100 50  0001 C CNN
	1    9200 3100
	-1   0    0    -1  
$EndComp
NoConn ~ 8950 3175
NoConn ~ 8850 3175
Text Label 8250 4675 2    50   ~ 0
A
Text Label 8250 4775 2    50   ~ 0
B
Text Label 8250 4875 2    50   ~ 0
INH
$Comp
L Amplifier_Operational:LM358 U6
U 1 1 609AE309
P 6225 5675
F 0 "U6" H 6250 5425 50  0000 C CNN
F 1 "LM358" H 6275 5525 50  0000 C CNN
F 2 "" H 6225 5675 50  0001 C CNN
F 3 "http://www.ti.com/lit/ds/symlink/lm2904-n.pdf" H 6225 5675 50  0001 C CNN
	1    6225 5675
	1    0    0    -1  
$EndComp
$Comp
L power:VCC #PWR0131
U 1 1 609DB4B9
P 5925 5175
F 0 "#PWR0131" H 5925 5025 50  0001 C CNN
F 1 "VCC" H 5940 5348 50  0000 C CNN
F 2 "" H 5925 5175 50  0001 C CNN
F 3 "" H 5925 5175 50  0001 C CNN
	1    5925 5175
	-1   0    0    -1  
$EndComp
$Comp
L Amplifier_Operational:LM358 U6
U 3 1 609B12A0
P 6225 5275
F 0 "U6" V 6050 5300 50  0000 C CNN
F 1 "LM358" V 6229 5275 50  0001 C CNN
F 2 "" H 6225 5275 50  0001 C CNN
F 3 "http://www.ti.com/lit/ds/symlink/lm2904-n.pdf" H 6225 5275 50  0001 C CNN
	3    6225 5275
	0    -1   -1   0   
$EndComp
$Comp
L Device:C_Small C8
U 1 1 609E57EB
P 6175 5175
F 0 "C8" V 5946 5175 50  0000 C CNN
F 1 "0u1" V 6037 5175 50  0000 C CNN
F 2 "" H 6175 5175 50  0001 C CNN
F 3 "~" H 6175 5175 50  0001 C CNN
	1    6175 5175
	0    -1   1    0   
$EndComp
$Comp
L power:Earth #PWR0132
U 1 1 609E6B82
P 6525 5375
F 0 "#PWR0132" H 6525 5125 50  0001 C CNN
F 1 "Earth" H 6525 5225 50  0001 C CNN
F 2 "" H 6525 5375 50  0001 C CNN
F 3 "~" H 6525 5375 50  0001 C CNN
	1    6525 5375
	1    0    0    -1  
$EndComp
Wire Wire Line
	5925 5175 6075 5175
Wire Wire Line
	6275 5175 6525 5175
Wire Wire Line
	6525 5175 6525 5375
Connection ~ 6525 5375
Connection ~ 5925 5175
Wire Wire Line
	5925 5775 5925 6000
Wire Wire Line
	5925 6000 6525 6000
Wire Wire Line
	6525 6000 6525 5675
Wire Wire Line
	6525 5675 6675 5675
Connection ~ 6525 5675
$Comp
L power:GND2 #PWR0133
U 1 1 60A0DC81
P 6800 5675
F 0 "#PWR0133" H 6800 5425 50  0001 C CNN
F 1 "GND2" H 6975 5625 50  0000 C CNN
F 2 "" H 6800 5675 50  0001 C CNN
F 3 "" H 6800 5675 50  0001 C CNN
	1    6800 5675
	1    0    0    -1  
$EndComp
Wire Wire Line
	5925 5175 5925 5375
Text Notes 5450 6250 0    129  ~ 0
Terra virtual
Wire Notes Line
	5325 6275 5325 4875
Wire Wire Line
	4150 3175 4325 3175
Wire Wire Line
	4150 1550 4325 1550
Text Notes 7900 1950 0    50   ~ 0
FSR = +/- 4.096 V\nVmax = +/- VCC
Wire Notes Line
	8725 2650 8725 675 
Wire Notes Line
	5400 675  8725 675 
Wire Notes Line
	5400 2650 8725 2650
Text Notes 1375 1875 0    50   ~ 0
V_burden <= 10 mV
Text Notes 1350 3500 0    50   ~ 0
V_burden <= 10 mV
NoConn ~ 8250 3575
NoConn ~ 8250 3675
NoConn ~ 8250 3875
NoConn ~ 8250 3975
NoConn ~ 8250 4075
NoConn ~ 8250 4275
NoConn ~ 8250 4375
NoConn ~ 8250 4475
NoConn ~ 8250 5075
NoConn ~ 8250 5175
NoConn ~ 9850 5275
NoConn ~ 9850 5175
NoConn ~ 9850 4975
NoConn ~ 9850 4875
NoConn ~ 9850 4775
NoConn ~ 9850 4675
NoConn ~ 9850 4575
NoConn ~ 9850 4375
NoConn ~ 9850 4275
NoConn ~ 9850 4175
NoConn ~ 9850 3675
NoConn ~ 9850 3575
$Comp
L Device:R_Small R9
U 1 1 60CEA47D
P 3450 1550
F 0 "R9" H 3600 1525 50  0000 R CNN
F 1 "680 1%" H 3800 1600 50  0000 R CNN
F 2 "" H 3450 1550 50  0001 C CNN
F 3 "~" H 3450 1550 50  0001 C CNN
	1    3450 1550
	-1   0    0    1   
$EndComp
$Comp
L Device:R_Small R10
U 1 1 60CEF23E
P 3450 3175
F 0 "R10" H 3600 3150 50  0000 R CNN
F 1 "680 1%" H 3800 3225 50  0000 R CNN
F 2 "" H 3450 3175 50  0001 C CNN
F 3 "~" H 3450 3175 50  0001 C CNN
	1    3450 3175
	-1   0    0    1   
$EndComp
Text Notes 3075 3350 0    50   ~ 0
G = 148
Text Notes 3075 1725 0    50   ~ 0
G = 148
Wire Wire Line
	8650 5775 8750 5775
Connection ~ 8750 5775
Wire Wire Line
	9250 5775 9350 5775
Connection ~ 9250 5775
Wire Wire Line
	9150 5775 9250 5775
Connection ~ 9150 5775
Wire Wire Line
	9000 5775 9050 5775
Wire Wire Line
	9050 5775 9150 5775
Connection ~ 9050 5775
Wire Wire Line
	8950 5775 9000 5775
Connection ~ 8950 5775
Wire Wire Line
	8850 5775 8950 5775
Wire Wire Line
	8750 5775 8850 5775
Connection ~ 8850 5775
$Comp
L Connector:Raspberry_Pi_2_3 J1
U 1 1 60D41794
P 9050 4475
F 0 "J1" H 8450 5825 50  0000 C CNN
F 1 "Raspberry_Pi_2_3" H 8425 5750 50  0000 C CNN
F 2 "" H 9050 4475 50  0001 C CNN
F 3 "https://www.raspberrypi.org/documentation/hardware/raspberrypi/schematics/rpi_SCH_3bplus_1p0_reduced.pdf" H 9050 4475 50  0001 C CNN
	1    9050 4475
	1    0    0    -1  
$EndComp
Wire Wire Line
	9250 3175 9250 3150
Wire Wire Line
	9150 3150 9150 3175
Wire Wire Line
	9150 3150 9200 3150
Wire Wire Line
	9200 3150 9200 3100
Connection ~ 9200 3150
Wire Wire Line
	9200 3150 9250 3150
Connection ~ 6675 5675
$Comp
L Device:CP1_Small 100u
U 1 1 610CA597
P 6675 5775
F 0 "100u" H 6750 5725 50  0000 L CNN
F 1 "CP1" H 6725 5625 50  0000 L CNN
F 2 "" H 6675 5775 50  0001 C CNN
F 3 "~" H 6675 5775 50  0001 C CNN
	1    6675 5775
	1    0    0    -1  
$EndComp
Wire Wire Line
	6675 5675 6800 5675
$Comp
L power:Earth #PWR?
U 1 1 610E2472
P 6675 5875
F 0 "#PWR?" H 6675 5625 50  0001 C CNN
F 1 "Earth" H 6675 5725 50  0001 C CNN
F 2 "" H 6675 5875 50  0001 C CNN
F 3 "~" H 6675 5875 50  0001 C CNN
	1    6675 5875
	1    0    0    -1  
$EndComp
Wire Notes Line
	7200 6275 7200 4875
Wire Notes Line
	5325 6275 7200 6275
Wire Notes Line
	5325 4875 7200 4875
Text Notes 3025 5075 0    50   ~ 0
G = 1
Text Label 3000 5375 0    50   ~ 0
Vref
Wire Wire Line
	2900 5375 3000 5375
Text Label 5925 5575 2    50   ~ 0
Vref
Wire Wire Line
	7300 1275 7300 1350
Wire Wire Line
	7300 1350 7425 1350
Wire Wire Line
	7300 1550 7425 1550
Wire Wire Line
	7300 1550 7300 1775
Wire Wire Line
	7400 1850 7400 1650
Wire Wire Line
	7400 1650 7425 1650
Wire Wire Line
	7400 1650 7400 1450
Wire Wire Line
	7400 1450 7425 1450
Connection ~ 7400 1650
$Comp
L Device:R_Small R?
U 1 1 610934CD
P 3700 5225
F 0 "R?" H 3850 5225 50  0000 R CNN
F 1 "100k 1%" H 3600 5225 50  0000 R CNN
F 2 "" H 3700 5225 50  0001 C CNN
F 3 "~" H 3700 5225 50  0001 C CNN
	1    3700 5225
	1    0    0    -1  
$EndComp
Wire Wire Line
	3700 5125 3850 5125
$Comp
L Device:C_Small C?
U 1 1 610934D4
P 4000 5225
F 0 "C?" H 4092 5271 50  0000 L CNN
F 1 "0.1n" H 4092 5180 50  0000 L CNN
F 2 "" H 4000 5225 50  0001 C CNN
F 3 "~" H 4000 5225 50  0001 C CNN
	1    4000 5225
	1    0    0    -1  
$EndComp
Wire Wire Line
	3700 5325 3850 5325
$Comp
L power:GND2 #PWR?
U 1 1 610934DB
P 3850 5325
F 0 "#PWR?" H 3850 5075 50  0001 C CNN
F 1 "GND2" H 3950 5200 50  0000 C CNN
F 2 "" H 3850 5325 50  0001 C CNN
F 3 "" H 3850 5325 50  0001 C CNN
	1    3850 5325
	1    0    0    -1  
$EndComp
Connection ~ 3850 5325
Wire Wire Line
	3850 5325 4000 5325
Wire Wire Line
	3850 5025 3850 5125
Connection ~ 3850 5125
Wire Wire Line
	3850 5125 4000 5125
Wire Wire Line
	3850 5025 3700 5025
$Comp
L Device:R_Small R?
U 1 1 610AEE05
P 4250 4725
F 0 "R?" V 4150 4800 50  0000 R CNN
F 1 "100 1%" V 4325 4875 50  0000 R CNN
F 2 "" H 4250 4725 50  0001 C CNN
F 3 "~" H 4250 4725 50  0001 C CNN
	1    4250 4725
	0    -1   -1   0   
$EndComp
Wire Wire Line
	4000 4725 4150 4725
$Comp
L Device:C_Small C?
U 1 1 610B8FDA
P 4350 4825
F 0 "C?" H 4425 4825 50  0000 L CNN
F 1 "100u" H 4175 4725 50  0000 L CNN
F 2 "" H 4350 4825 50  0001 C CNN
F 3 "~" H 4350 4825 50  0001 C CNN
	1    4350 4825
	1    0    0    -1  
$EndComp
Wire Wire Line
	4350 4725 4600 4725
Connection ~ 4350 4725
$Comp
L Device:R_Small R?
U 1 1 610C21E6
P 4275 6100
F 0 "R?" V 4175 6175 50  0000 R CNN
F 1 "100 1%" V 4350 6225 50  0000 R CNN
F 2 "" H 4275 6100 50  0001 C CNN
F 3 "~" H 4275 6100 50  0001 C CNN
	1    4275 6100
	0    -1   -1   0   
$EndComp
Wire Wire Line
	4025 6100 4175 6100
$Comp
L Device:C_Small C?
U 1 1 610C21ED
P 4375 6200
F 0 "C?" H 4450 6175 50  0000 L CNN
F 1 "100u" H 4175 6100 50  0000 L CNN
F 2 "" H 4375 6200 50  0001 C CNN
F 3 "~" H 4375 6200 50  0001 C CNN
	1    4375 6200
	1    0    0    -1  
$EndComp
Wire Wire Line
	4375 6100 4625 6100
Connection ~ 4375 6100
Wire Notes Line
	4575 3975 4575 6950
Wire Notes Line
	1425 3975 4575 3975
Wire Notes Line
	1425 6950 4575 6950
$Comp
L power:Earth #PWR?
U 1 1 610F3218
P 4350 4925
F 0 "#PWR?" H 4350 4675 50  0001 C CNN
F 1 "Earth" H 4350 4775 50  0001 C CNN
F 2 "" H 4350 4925 50  0001 C CNN
F 3 "~" H 4350 4925 50  0001 C CNN
	1    4350 4925
	1    0    0    -1  
$EndComp
NoConn ~ 1650 5475
NoConn ~ 8250 4975
$Comp
L power:Earth #PWR0117
U 1 1 609BC537
P 3625 6400
F 0 "#PWR0117" H 3625 6150 50  0001 C CNN
F 1 "Earth" H 3625 6250 50  0001 C CNN
F 2 "" H 3625 6400 50  0001 C CNN
F 3 "~" H 3625 6400 50  0001 C CNN
	1    3625 6400
	1    0    0    -1  
$EndComp
$Comp
L power:Earth #PWR?
U 1 1 6107BEBE
P 4375 6300
F 0 "#PWR?" H 4375 6050 50  0001 C CNN
F 1 "Earth" H 4375 6150 50  0001 C CNN
F 2 "" H 4375 6300 50  0001 C CNN
F 3 "~" H 4375 6300 50  0001 C CNN
	1    4375 6300
	1    0    0    -1  
$EndComp
$EndSCHEMATC
